{
  "response": {
    "menuBar": {
      "menu": [
        {
          "tag": "thrive",
          "label": "Thrive",
          "type": "menu",
          "thrive": [
            {
              "tag": "kporg",
              "label": "kp.org",
              "type": "link",
              "attributes": {
                "attribute": {
                  "text": "https://members.kaiserpermanente.org/redirects/listen/",
                  "class": "address"
                }
              }
            },
            {
              "tag": "mymenu",
              "label": "My Menu",
              "type": "menu",
              "mymenu": {
                "tag": "mymenu",
                "label": "My Menu",
                "type": "page"
              }
            },
            {
              "tag": "restaurants",
              "label": "Restraurants",
              "type": "page"
            },
            {
              "tag": "mycomfort",
              "label": "My Comfort",
              "type": "menu",
              "mycomfort": [
                {
                  "tag": "roomservice",
                  "label": "Room Service",
                  "type": "page",
                  "attributes": {
                    "attribute": {
                      "text": "To place an order, please use the paper menu in your room and dial Ext. 31-3463",
                      "class": "body"
                    }
                  }
                },
                {
                  "tag": "paincontrol",
                  "label": "Pain Control",
                  "type": "page",
                  "attributes": {
                    "attribute": {
                      "text": "We want you to be comfortable.  Please talk to your clinical staff about any discomfort you are having.<br/>Use the Red Call button on your Pillow Speaker.",
                      "class": "body"
                    }
                  }
                },
                {
                  "tag": "therapydogs",
                  "label": "Therapy Dogs",
                  "type": "page",
                  "attributes": {
                    "attribute": {
                      "text": "Therapy Dogs - Hours/Days vary per availability<br/>Visiting with animals touches people's hearts in a wonderful and unique way. Animal visitors offer unconditional love, a welcome change from routine, and the renewal of old friendships. <br/>Some of the many benefits of pet therapy include:<br/>&#8226; Reduced anxiety and lowered blood pressure<br/>&#8226; Fun and entertainment<br/>&#8226; Increased physical activity when petting an animal<br/>Tell you nurse if you are open to receiving a visit from a therapy dog.",
                      "class": "body"
                    }
                  }
                },
                {
                  "tag": "guidedimagery",
                  "label": "Guided Imagery",
                  "type": "page",
                  "attributes": {
                    "attribute": {
                      "text": "Guided Imagery<br/>Because your brain often can't distinguish whether you're imagining something or you're experiencing it, you can use your imagination to help you heal and to reduce pain and symptoms.<br/>How to Get Started:<br/>  1. Take several slow, deep breaths, exhaling completely.<br/>  2. Now see if you can build your image, real or imaginary.<br/>  3. Allow your special image to take shape slowly.  <br/>      Remember, there's no rush.<br/>",
                      "class": "body"
                    }
                  }
                }
              ]
            },
            {
              "tag": "spiritualsupport",
              "label": "Spiritual Support",
              "type": "menu",
              "spiritualsupport": [
                {
                  "tag": "chaplain",
                  "label": "Chaplain",
                  "type": "page",
                  "attributes": {
                    "attribute": {
                      "text": "Chaplain's office phone: Ext. 24-4184<br/>Would you like a pastoral visit?<br/>Do you have feelings of fear, grief, loneliness, anger, hopelessness, or guilt?<br/>Do you have belief or faith questions?<br/>Would you like a quiet, supportive presence?<br/>Do you want assistance in notifying local or personal clergy or spiritual advisor?<br/>Chaplaincy will provide emotional and spiritual support to patients and families  in a manner which respects diversity of spiritual, religious and cultural beliefs and values.",
                      "class": "body"
                    }
                  }
                },
                {
                  "tag": "meditationroom",
                  "label": "Meditation Room",
                  "type": "page",
                  "attributes": {
                    "attribute": {
                      "text": "Meditation Room - First Floor, across from Emergency Dept.<br/>The hospital has a quiet, <br/>non-denominational prayer/meditation room with reading material available to you and your visitors. <br/>The meditation room is intended for people of all faiths, or just to find some peace while experiencing the stress of one?s own or another?s illness.",
                      "class": "body"
                    }
                  }
                },
                {
                  "tag": "coping",
                  "label": "Coping",
                  "type": "page",
                  "attributes": {
                    "attribute": {
                      "text": "Coping Assessment<br/>This test is strictly for your personal assessment regarding your coping ability at this moment in time.  It is meant for your personal reflection or shared if so desired.<br/>Press the button below to begin your assessment.<br/>",
                      "class": "body"
                    }
                  }
                },
                {
                  "tag": "sacredflight",
                  "label": "Sacred Flight",
                  "type": "page",
                  "attributes": {
                    "attribute": {
                      "text": "To request SacredFlight Music-Thanatology,<br/>speak with your nurse to arrange this service<br/>Music-thanatology is a palliative care modality that unites music and medicine in end of life care. The music-thanatologist brings harp and voice to the bedside with the prescriptive, therapeutic qualities of music, a concept that dates back to ancient times. <br/>A music-thanatology vigil can help:<br/>&#8226; Ease respirations <br/>&#8226; Create deeper rest<br/>&#8226; Reduce anxiety                 &#8226; Lessen fear<br/>&#8226; Decrease pain<br/>",
                      "class": "body"
                    }
                  }
                },
                {
                  "tag": "bereavementsupport",
                  "label": "Bereavement Support",
                  "type": "page",
                  "attributes": {
                    "attribute": {
                      "text": "Grief Support Groups give people who have lost a loved one an opportunity to understand and express their feelings in a safe, confidential environment.  Groups are located throughout the Portland area.  Press Call Support below or call 503-499-5242 / 800-448-0838.<br/><br/>The Dougy Center - The National Center for Grieving Children & Families - provides support in a safe place where children and families can share their experiences as they move through the healing process. Call 503-775-5683 or 866-775-5683.  Visit www.dougy.org for more information.<br/><br/>Call Support [btn][calls Ext. 9-503-499-5242]",
                      "class": "body"
                    }
                  }
                }
              ]
            },
            {
              "tag": "communitysupport",
              "label": "Community Support",
              "type": "menu",
              "communitysupport": {
                "tag": "supportnumbers",
                "label": "Support Numbers",
                "type": "page",
                "attributes": {
                  "attribute": {
                    "text": "Support Numbers: Keeping Life in Balance<br/><br/>Advice Nurse 24/7: 1-800-813-2000 (toll free)<br/>Breast Friends: Helping women survive the trauma of breast cancer, one friend at a time.  503-598-8048,  888-386-8046<br/>Therapy & Counseling services:  503-249-3434<br/>Emergency psychiatric services (24 hours):  503-331-6425<br/>Cancer Support: 503-331-6550<br/>Health Coach: 1-800-574-8460<br/>Alcoholics Anonymous:  503-223-8569<br/>Al-Anon/Alateen:  503-292-1333<br/>National Suicide Hotline: 1-800-273-8255 (toll free)<br/>Portland Women's Crisis Line: 503-235-5333<br/>YWCA SafeChoice:  360-695-0501",
                    "class": "body"
                  }
                }
              }
            }
          ]
        },
        {
          "tag": "learn",
          "label": "Learn",
          "type": "menu",
          "learn": [
            {
              "tag": "ecareboard",
              "label": "eCareBoard",
              "type": "page"
            },
            {
              "tag": "myprograms",
              "label": "My Educations",
              "type": "page"
            },
            {
              "tag": "allprograms",
              "label": "Hospital Education",
              "type": "page"
            },
            {
              "tag": "webeducation",
              "label": "Web Education",
              "type": "menu",
              "webeducation": [
                {
                  "tag": "webresources",
                  "label": "Web Resources",
                  "type": "page",
                  "attributes": {
                    "attribute": {
                      "text": "Use the valuable resources on the left to watch videos related to your condition.<br/><br/>Ask your nurse if you have any questions about the videos you watch.",
                      "class": "body"
                    }
                  }
                },
                {
                  "tag": "webmd",
                  "label": "Web MD",
                  "type": "page"
                },
                {
                  "tag": "mayoclinic",
                  "label": "Mayo Clinic",
                  "type": "page"
                },
                {
                  "tag": "medlineplus",
                  "label": "Medline Plus",
                  "type": "page"
                }
              ]
            },
            {
              "tag": "healthcoach",
              "label": "Health Coach",
              "type": "menu",
              "healthcoach": [
                {
                  "tag": "aboutcoaching",
                  "label": "About Coaching",
                  "type": "page",
                  "attributes": {
                    "attribute": {
                      "text": "Thinking about a healthier lifestyle?  Talk with a Health Coach<br/><br/>You and a coach can discuss:<br/>? Your health goals<br/>? The process of change<br/>? Your options for next steps<br/><br/>Health Coaches are:<br/>? Free for Kaiser Permanente members <br/>? Available Monday through Friday, 8 a.m. to 5 p.m.",
                      "class": "body"
                    }
                  }
                },
                {
                  "tag": "contactacoach",
                  "label": "Contact a Coach",
                  "type": "page",
                  "attributes": {
                    "attribute": {
                      "text": "Personal Health Coaches are valuable resources<br/><br/>Contact a Health Coach:<br/>? Calling 1-800-574-8460<br/>? Call 503-286-6816 or 1-866-301-3866 <br/>Please make a selection or wait until end of recording and you will be assisted. <br/><br/>Or click the button below<br/><br/>Contact a Coach Now [btn][dials 9-503-286-6816 ]",
                      "class": "body"
                    }
                  }
                }
              ]
            }
          ]
        },
        {
          "tag": "visit",
          "label": "Visit",
          "type": "menu",
          "visit": [
            {
              "tag": "hospitaldirectory",
              "label": "Hospital Directory",
              "type": "menu",
              "hospitaldirectory": [
                {
                  "tag": "generalnumbers",
                  "label": "General Numbers",
                  "type": "page",
                  "attributes": {
                    "attribute": {
                      "text": "To call your Nurse use the Call button on your Pillow Speaker<br/><br/>Westside Operator:  Ext. 24-0000<br/>Chaplain:  Ext. 24-4184<br/>Health Coach:  Ext 26-6816<br/>Housekeeping: Ext. 24-7666<br/>Patient Advocate: Ext. 12-2200 <br/>Pharmacy: Ext. 24-3500<br/>Security: Ext. 24-4444<br/><br/>",
                      "class": "body"
                    }
                  }
                },
                {
                  "tag": "shops",
                  "label": "Shops & Restaurants",
                  "type": "page",
                  "attributes": {
                    "attribute": {
                      "text": "To call your Nurse use the Call button on your Pillow Speaker<br/><br/>Coffee Express: Ext. 24-3023<br/>Room Service: Ext. 24-3463<br/>Gift Shop: Ext. 24-3139<br/><br/><br/>",
                      "class": "body"
                    }
                  }
                }
              ]
            },
            {
              "tag": "about",
              "label": "About Our Hospital",
              "type": "menu",
              "about": [
                {
                  "tag": "generalinfo",
                  "label": "General Info",
                  "type": "page",
                  "attributes": {
                    "attribute": {
                      "text": "General Information<br/><br/>Westside Operator:  971-310-1000<br/><br/>Westside visiting hours are unlimited. <br/><br/><br/>Address: <br/>2875 N.W. Stucki Avenue, Hillsboro, Oregon  97124<br/>",
                      "class": "body"
                    }
                  }
                },
                {
                  "tag": "ourleadership",
                  "label": "Our Leadership",
                  "type": "page",
                  "attributes": {
                    "attribute": {
                      "text": "Leadership<br/><br/>Kaiser Permanente's mission is exemplified in our Leadership, to provide high-quality, affordable health care services to improve the lives of our members and the communities we serve.<br/><br/>Learn more about our Leaders by watching the video below.<br/><br/>Watch Video [btn]",
                      "class": "body"
                    }
                  }
                },
                {
                  "tag": "welcomevideo",
                  "label": "Welcome Video",
                  "type": "page",
                  "attributes": {
                    "attribute": {
                      "text": "Welcome Video<br/><br/>Please enjoy this video as our culturally diverse staff welcome you to the campus.<br/><br/>Watch Video [btn]",
                      "class": "body"
                    }
                  }
                },
                {
                  "tag": "ourhistory",
                  "label": "Our History",
                  "type": "page",
                  "attributes": {
                    "attribute": {
                      "text": "About Our Art<br/><br/>All of the art here at Westside was provided by local Northwest artists.  <br/><br/>We hope you will enjoy this video presenting our unique artwork.<br/><br/>Watch Video [btn]",
                      "class": "body"
                    }
                  }
                },
                {
                  "tag": "aboutourart",
                  "label": "About Our Art",
                  "type": "page",
                  "attributes": {
                    "attribute": {
                      "link": "https://northwest-hospitals.kaiserpermanente.org/about-our-hospitals/our-green-commitment",
                      "class": "body"
                    }
                  }
                },
                {
                  "tag": "greencommitment",
                  "label": "Green Commitment",
                  "type": "page"
                },
                {
                  "tag": "westsideportal",
                  "label": "Westside Portal",
                  "type": "page",
                  "attributes": {
                    "attribute": {
                      "text": "Building Westside Medical Center<br/><br/>In June 2009, we broke ground on Kaiser Permanente Westside Medical Center.  <br/><br/>Take a look at this short video to see how our building was constructed.<br/><br/>",
                      "class": "body"
                    }
                  }
                }
              ]
            },
            {
              "tag": "campusmap",
              "label": "Campus Map",
              "type": "menu",
              "campusmap": [
                {
                  "tag": "campusmap",
                  "label": "Campus Map",
                  "type": "page",
                  "attributes": {
                    "attribute": {
                      "image": "bk_hires_1366x768_200_kais-nw_secondlevel2.jpg",
                      "class": "image1"
                    }
                  }
                },
                {
                  "tag": "floorplan",
                  "label": "Floor Plan",
                  "type": "page"
                }
              ]
            },
            {
              "tag": "localarea",
              "label": "Local Area",
              "type": "menu"
            },
            {
              "tag": "volunteerservices",
              "label": "Volunteer Services",
              "type": "menu",
              "volunteerservices": [
                {
                  "tag": "whatwedo",
                  "label": "What We Do",
                  "type": "page",
                  "attributes": {
                    "attribute": {
                      "text": "Service Volunteers give caring and compassionate assistance to our patients and can provide:    <br/>&#8226; Activity cart <br/>&#8226; Staff the Gift Shop<br/>&#8226; Animal assisted therapy (Therapy dogs)<br/>&#8226; Companionship and support to patients/families<br/>&#8226; Deliver flowers, answer questions, and more!<br/><br/>Interested in volunteering?  Call 971-310-3138 or 243138.",
                      "class": "body"
                    }
                  }
                },
                {
                  "tag": "activitycart",
                  "label": "Activity Cart",
                  "type": "page",
                  "attributes": {
                    "attribute": {
                      "text": "Activity Cart<br/>Staffed by volunteers, our Activity Cart contains paperback books, magazines, coloring books, crossword puzzles, word search puzzles, sudoko puzzles.<br/><br/>We circulate through the hospital and will come to your room when requested.<br/><br/><br/>Request Activity Cart [btn] [Speed Dial - 24-3135]",
                      "class": "body"
                    }
                  }
                }
              ]
            },
            {
              "tag": "ethicsconsultation",
              "label": "Ethics Consultation",
              "type": "menu",
              "ethicsconsultation": {
                "tag": "ethicsconsultation",
                "label": "Ethics Consultation",
                "type": "page",
                "attributes": {
                  "attribute": {
                    "text": "An Ethics Consultant is available 7 a.m. - 8 p.m. <br/>7 days a week to help patients and families:<br/>&#8226; Make difficult care decisions<br/>&#8226; Help solve a disagreement about types of care<br/>&#8226; Weigh the benefits and burdens of care<br/>&#8226; When to begin or stop life support<br/>&#8226; When quality of life may be more important than length of life<br/>&#8226; When to choose new or high-risk treatment<br/><br/>To request a consultation press Contact Consultant, call the hospital operator at 971-310-1000 or dial ext. 24-1000<br/><br/>Contact Consultant [btn]",
                    "class": "body"
                  }
                }
              }
            },
            {
              "tag": "billquestions",
              "label": "Billing Questions",
              "type": "menu",
              "billquestions": {
                "tag": "generalinfo",
                "label": "General Info",
                "type": "page",
                "attributes": {
                  "attribute": {
                    "text": "Please contact Membership Services at <br/>1-866-478-0280 Monday through Friday from 8:00am to 6:00pm for assistance with billing and benefit questions. <br/><br/>Financial Counselors and the Medical Financial Assistance program help patients identifiy and apply for federal, state and local programs. To contact a financial counselor call 971-310-3195.<br/><br/>Contact Consultant [btn][9-1-877-221-8221]",
                    "class": "body"
                  }
                }
              }
            },
            {
              "tag": "memberservices",
              "label": "Member Services",
              "type": "menu",
              "memberservices": [
                {
                  "tag": "generalinfo",
                  "label": "General Info",
                  "type": "page",
                  "attributes": {
                    "attribute": {
                      "text": "Membership Services: <br/>8:00am to 6:00pm Monday - Friday<br/>From selecting a medical office and personal physician to learning more about your coverage, Membership Services can help. Contact us via email at kp.org, in person at most medical offices, or by phone: <br/>       Portland area: 503-813-2000<br/>       All other areas: 1-800-813-2000<br/>       TTY: 1-800-735-2900<br/>       Language interpretation services: 1-800-324-8010<br/><br/><br/>Contact Consultant [btn-9-1-877-221-8221]",
                      "class": "body"
                    }
                  }
                },
                {
                  "tag": "medicaremembers",
                  "label": "Medicare Members",
                  "type": "page",
                  "attributes": {
                    "attribute": {
                      "text": "Membership Services:  Medicare Members <br/><br/>Medicare members can call Membership Services toll free 8:00am to 6:00pm seven days a week at:<br/><br/>1-877-221-8221<br/>TTY 1-800-735-2900<br/><br/><br/>Contact Consultant [btn-9-1-877-221-8221]",
                      "class": "body"
                    }
                  }
                }
              ]
            },
            {
              "tag": "feedback",
              "label": "Feedback",
              "type": "menu",
              "feedback": [
                {
                  "tag": "mysafety",
                  "label": "My Safety",
                  "type": "page",
                  "attributes": {
                    "attribute": {
                      "text": "Our goal is to provide a safe environment.  Have your safety needs been met, such as assistance to the bathroom, getting in an out of bed, and items placed within your reach?  <br/><br/>Btns: Yes / No",
                      "class": "body"
                    }
                  }
                },
                {
                  "tag": "mycare",
                  "label": "My Care",
                  "type": "page",
                  "attributes": {
                    "attribute": {
                      "text": "Our goal is to provide an exceptional care experience.  Have we been caring and compassionate to you and your family?<br/><br/>Btns: Yes / No",
                      "class": "body"
                    }
                  }
                },
                {
                  "tag": "myexpectations",
                  "label": "My Expectations",
                  "type": "page",
                  "attributes": {
                    "attribute": {
                      "text": "Our goal is to provide care in a timely manner.  Are we meeting your expectations?<br/><br/>Btns: Yes / No",
                      "class": "body"
                    }
                  }
                }
              ]
            }
          ]
        },
        {
          "tag": "fun",
          "label": "Fun",
          "type": "menu",
          "fun": [
            {
              "tag": "tv",
              "label": "Watch TV",
              "type": "grid"
            },
            {
              "tag": "movies",
              "label": "Movies",
              "type": "page"
            },
            {
              "tag": "weather",
              "label": "Weather",
              "type": "page",
              "attributes": {
                "attribute": {
                  "link": "http://www.weather.com/weather/right-now/USOR0275",
                  "class": "link1"
                }
              }
            },
            {
              "tag": "internet",
              "label": "Internet",
              "type": "page"
            },
            {
              "tag": "shopping",
              "label": "Shopping",
              "type": "menu",
              "shopping": [
                {
                  "tag": "shoppinginhospital",
                  "label": "Shopping in Hospital",
                  "type": "page",
                  "attributes": {
                    "attribute": [
                      {
                        "text": "Thank you for your feedback.<br/><br/>We are always looking for ways to provide compassionate care and help our patients be as comfortable as possible.",
                        "class": "body"
                      },
                      {
                        "text": "Gift Shop<br/>Staffed by volunteers, our Gift Shop is on the first floor near the main entrance.  We offer include flowers, cards, candy, jewelry, and seasonal gifts.<br/><br/>Open 10am to 7pm, Mon-Fri.<br/>11am to 4pm weekends<br/>Closed public holidays<br/><br/>Call Now [btn][24-3140]",
                        "class": "body"
                      }
                    ]
                  }
                },
                {
                  "tag": "localareashopping",
                  "label": "Local Area Shopping",
                  "type": "page"
                }
              ]
            },
            {
              "tag": "events",
              "label": "Events",
              "type": "menu",
              "events": {
                "tag": "weeklyevents",
                "label": "Weekly Events",
                "type": "page",
                "attributes": {
                  "attribute": {
                    "text": "Events at Westside<br/>If you wish, please join us at one of our hospital events.  <br/><br/>Event List:<br/>Coming soon",
                    "class": "body"
                  }
                }
              }
            }
          ]
        },
        {
          "tag": "relax",
          "label": "Relax",
          "type": "menu",
          "relax": [
            {
              "tag": "music",
              "label": "Music & Radio",
              "type": "page"
            },
            {
              "tag": "scenictv",
              "label": "ScenicTV",
              "type": "page"
            },
            {
              "tag": "guidedimagery",
              "label": "Guided Imagery",
              "type": "menu",
              "guidedimagery": {
                "tag": "usingguidedimagery",
                "label": "Using Guided Imagery",
                "type": "page",
                "attributes": {
                  "attribute": {
                    "text": "Guided Imagery<br/><br/>Because your brain often can't distinguish whether you're imagining something or you're experiencing it, you can use your imagination to help you heal and to reduce pain and symptoms.<br/><br/>How to Get Started:<br/>  1. Take several slow, deep breaths, exhaling completely.<br/>  2. Now see if you can build your image, real or imaginary.<br/>  3. Allow your special image to take shape slowly.  <br/>      Remember, there's no rush.<br/><br/>Programs [btn]<br/><br/>Note: Text is the same as the Thrive/Guided Imagery screen.",
                    "class": "body"
                  }
                }
              }
            }
          ]
        }
      ]
    }
  }
}