


























   
   
	{ "DataArea": 
		{ 
       "ListOfEntry": [ 
         
	{ "tagName": "Asset", "tagAttribute": {
		"hierarchyUID":"LABA150","localEntryUID":"A1000000083","entryName":"HP Deathly Hallows P1 title","entryType":"6","sequence":"0","parentHUID":"LABN13","parentEntryType":"1","productOfferingUID":"3","productOfferingHUID":"LABN4","isManual":"false","isInvisible":"false","entryCount":"0","folderCount":"0","isUpdated":"false","huidPath":"H0/LABN3/LABN4/LABN11/LABN13/","timestamp":"20120908 01:24:24","duration":"8410","applicationUID":"0","entryUID":"1000000083","price":"0.00","isOwned":"true","assetType":"0","assetState":"1","zqEntryState":"0","offeringState":"1","ticketIDList":"100000457","secondaryKey":"002-1029819"}
		
            , "ListOfMetaData": { 
               "Title":"Harry Potter-Deathly Hallows Part 1"
               ,"Length":"146"
               ,"Genre":"1"
               ,"TitleBrief":"Harry Potter"
               ,"YearOfRelease":"2010"
               ,"CreationDate":"2011-07-01 00:00:00"
               ,"ActivateTime":"2011-07-01"
               ,"DeactivateTime":"2041-07-01"
               ,"Provider":"Swank"
               ,"Rating":"4"
               ,"LongDescription":"The final chapter of the Harry Potter film series begins as Harry, Ron and Hermione leave Hogwarts behind and set out to find and destroy the Horcruxes - the secret to Voldemorta€?s power and immortality."
               ,"Description":"HP Deathly Hallows P1 title"
               ,"AnalogCopy":"2"
               ,"ClosedCaption":"0"
               ,"ProviderQAContact":""
               ,"CanBeSuspended":"0"
               ,"RentalType":"2"
               ,"RentalTime":"142560"
               ,"Category":"Movies\Action"
               ,"PosterBoard":"http://192.168.1.50/Poster/T177.JPG"
               ,"HDContent":"0"
			   ,"ContentUrl":"http://www.wowza.com/_h264/BigBuckBunny_115k.mov"
             } 
         
	}
	
         , 
	{ "tagName": "Asset", "tagAttribute": {
		"hierarchyUID":"HOSA10","localEntryUID":"A1000000013","entryName":"The Avengers (2012) title","entryType":"6","sequence":"0","parentHUID":"HOSN10","parentEntryType":"1","productOfferingUID":"3","productOfferingHUID":"HOSN6","isManual":"false","isInvisible":"false","entryCount":"0","folderCount":"0","isUpdated":"false","huidPath":"H0/HOSN4/HOSN5/HOSN6/HOSN8/HOSN10/","timestamp":"20130709 13:42:46","duration":"7797","applicationUID":"0","entryUID":"1000000013","price":"0.00","isOwned":"false","assetType":"0","assetState":"1","zqEntryState":"0","offeringState":"1","ticketIDList":"100000005","secondaryKey":"0002-0033165"}
		
            , "ListOfMetaData": {
		"Title":"The Avengers (2012)","Length":"129","Genre":"1","YearOfRelease":"2012","CreationDate":"2013-06-07 00:00:00","ActivateTime":"2013-07-09","DeactivateTime":"2023-07-09","Provider":"Swank","Rating":"3","SubtitleLanguage":"1","LongDescription":"Superheroes Iron Man, Captain America, Thor, Hawkeye and The Hulk.","Description":"The Avengers (2012) title","AnalogCopy":"2","ClosedCaption":"0","ProviderQAContact":"","CanBeSuspended":"0","RentalType":"2","RentalTime":"148599","Category":"Movies/Action","PosterBoard":"http://localhost/Poster/T25.JPG","HDContent":"0"
		,"ContentUrl":"http://www.youtube.com/watch?v=hIR8Ar-Z4hw"
	}
	
         
	}
	
         , 
	{ "tagName": "Asset", "tagAttribute": {
		"hierarchyUID":"LABA212","localEntryUID":"A1000000113","entryName":"True Grit (1969) title","entryType":"6","sequence":"0","parentHUID":"LABN13","parentEntryType":"1","productOfferingUID":"3","productOfferingHUID":"LABN4","isManual":"false","isInvisible":"false","entryCount":"0","folderCount":"0","isUpdated":"false","huidPath":"H0/LABN3/LABN4/LABN11/LABN13/","timestamp":"20130201 00:15:01","duration":"7681","applicationUID":"0","entryUID":"1000000113","price":"0.00","isOwned":"false","assetType":"0","assetState":"1","zqEntryState":"0","offeringState":"1","ticketIDList":"","secondaryKey":"002-0004374"}
		
            , "ListOfMetaData": { 
               "Title":"True Grit (1969)"
               ,"Length":"128"
               ,"Genre":"1"
               ,"TitleBrief":"True Grit (1969)"
               ,"YearOfRelease":"1969"
               ,"CreationDate":"2012-11-01 00:00:00"
               ,"ActivateTime":"2013-02-01"
               ,"DeactivateTime":"2041-02-01"
               ,"Provider":"Swank"
               ,"Rating":"2"
               ,"LongDescription":"John Wayne was given an Oscar for his performance as the drunken, uncouth, one-eyed U.S. Marshall, Rooster Cogburn, in this extraordinary Western."
               ,"Description":"True Grit (1969) title"
               ,"AnalogCopy":"2"
               ,"ClosedCaption":"0"
               ,"ProviderQAContact":""
               ,"CanBeSuspended":"0"
               ,"RentalType":"2"
               ,"RentalTime":"142560"
               ,"Category":"Movies/Action"
               ,"PosterBoard":"http://192.168.1.50/Poster/T229.JPG"
               ,"HDContent":"0"
			   ,"ContentUrl":"http://www.youtube.com/watch?v=CUiCu-zuAgM"
             } 
         
	}
	
         
       ], "PageInfo": { "Total": "3", "CurrentPage": "1", "TotalPage": "1" } 
      
    }
	}
	
