   {DataArea:{
      ListOfEntry:[
	  
	  {tagName:"Asset",tagAttribute:{
			hierarchyUID:"TWTA1717",localEntryUID:"A1000000527",entryName:"Dirty Jobs",entryType:"6",sequence:"2",parentHUID:"TWTN26",parentEntryType:"1",productOfferingUID:"8",productOfferingHUID:"TWTN19",isManual:"true",isInvisible:"true",entryCount:"0",folderCount:"0",isUpdated:"false",huidPath:"H0/TWTN2/TWTN17/TWTN19/TWTN25/TWTN26/",timestamp:"20100111 18:40:43",duration:"277",applicationUID:"0",entryUID:"1000000527",price:"12.99",isOwned:"false",assetType:"0",assetState:"1",offeringState:"1",secondaryKey:"SCHANGE.COM-2419"}
            ,ListOfMetaData:{
               "Title":"Dirty Jobs HD"
               ,"Length":"90"
               ,"Genre":"4"
               ,"YearOfRelease":"2009"
               ,"CreationDate":"2009-04-01 09:35:19"
               ,"ActivateTime":"2009-04-01 09:35:19"
               ,"DeactivateTime":"2036-12-31 00:00:00"
               ,"Rating":"3"
               ,"Actors":"Discovery"
               ,"LongDescription":"Dirty Jobs"
               ,"Description":"Dirty Jobs"
               ,"AnalogCopy":"1"
               ,"RentalType":"2"
               ,"RentalTime":"1440"
               ,"SummaryLong":"N"
               ,"PosterBoard":"http://192.168.1.50/Poster/T1069.jpg
               ,http://192.168.1.50/Poster/T1070.jpg"
            }
         }
	  
     ]
		, PageInfo:{Total:"1",Range:"1",TotalPage:"1",CurrentPage:"1"}
      
   }}