


























   
   
	{ "DataArea": 
		{ 
       "ListOfEntry": [ 
         
	{ "tagName": "Asset", "tagAttribute": {
		"hierarchyUID":"LABA185","localEntryUID":"A1000000093","entryName":"How Do I Go On title","entryType":"6","sequence":"0","parentHUID":"LABN21","parentEntryType":"1","productOfferingUID":"5","productOfferingHUID":"LABN9","isManual":"false","isInvisible":"false","entryCount":"0","folderCount":"0","isUpdated":"false","huidPath":"H0/LABN3/LABN9/LABN12/LABN21/","timestamp":"20121114 17:18:37","duration":"1270","applicationUID":"0","entryUID":"1000000093","price":"0.00","isOwned":"false","assetType":"0","assetState":"1","zqEntryState":"0","offeringState":"1","ticketIDList":"","secondaryKey":"005-1229_HowDoIGoOn"}
		
            , "ListOfMetaData": { 
               "Title":"How Do I Go On"
               ,"Length":"21"
               ,"Genre":"2002"
               ,"TitleBrief":"How Do I Go On"
               ,"YearOfRelease":"2011"
               ,"CreationDate":"2011-09-01 00:00:00"
               ,"ActivateTime":"2011-09-01 00:00:00"
               ,"DeactivateTime":"2031-09-09 00:00:00"
               ,"Provider":"Swedish"
               ,"Rating":"3"
               ,"SubtitleLanguage":"6"
               ,"LongDescription":"How Do I Go On"
               ,"Description":"How Do I Go On title"
               ,"AnalogCopy":"2"
               ,"ClosedCaption":"0"
               ,"CanBeSuspended":"0"
               ,"RentalType":"2"
               ,"RentalTime":"1440"
               ,"Category":"Healthcare\Heart"
               ,"HDContent":"0"
             } 
         
	}
	
         , 
	{ "tagName": "Asset", "tagAttribute": {
		"hierarchyUID":"LABA194","localEntryUID":"A1000000103","entryName":"Mothers Discharge Instructions title","entryType":"6","sequence":"0","parentHUID":"LABN21","parentEntryType":"1","productOfferingUID":"5","productOfferingHUID":"LABN9","isManual":"false","isInvisible":"false","entryCount":"0","folderCount":"0","isUpdated":"false","huidPath":"H0/LABN3/LABN9/LABN12/LABN21/","timestamp":"20121204 15:51:52","duration":"469","applicationUID":"0","entryUID":"1000000103","price":"0","isOwned":"false","assetType":"0","assetState":"1","zqEntryState":"0","offeringState":"1","ticketIDList":"","secondaryKey":"Aceso1-AFAHCT1F1"}
		
            , "ListOfMetaData": { 
               "Title":"Mothers Discharge Instructions (English)"
               ,"Length":"8"
               ,"Genre":"2002"
               ,"TitleBrief":"Mother Discharge E"
               ,"YearOfRelease":"2011"
               ,"CreationDate":"2011-10-01 00:00:00"
               ,"ActivateTime":"2011-10-01"
               ,"DeactivateTime":"2034-12-31"
               ,"CountryOfOrigin":"USA"
               ,"Provider":"Aceso"
               ,"Rating":"2"
               ,"SubtitleLanguage":"1"
               ,"LongDescription":"Mothers Discharge Instructions (English)"
               ,"Description":"Mothers Discharge Instructions title"
               ,"AnalogCopy":"2"
               ,"ClosedCaption":"0"
               ,"ContractName":"Fletcher"
               ,"ProviderQAContact":""
               ,"CanBeSuspended":"0"
               ,"RentalType":"2"
               ,"RentalTime":"1440"
               ,"Category":"Healthcare\Heart"
               ,"HDContent":"0"
             } 
         
	}
	
         , 
	{ "tagName": "Asset", "tagAttribute": {
		"hierarchyUID":"LABA195","localEntryUID":"A1000000104","entryName":"Nursing Assistant Heart Talk Module 1 title","entryType":"6","sequence":"0","parentHUID":"LABN21","parentEntryType":"1","productOfferingUID":"5","productOfferingHUID":"LABN9","isManual":"false","isInvisible":"false","entryCount":"0","folderCount":"0","isUpdated":"false","huidPath":"H0/LABN3/LABN9/LABN12/LABN21/","timestamp":"20121204 16:31:52","duration":"427","applicationUID":"0","entryUID":"1000000104","price":"0.00","isOwned":"false","assetType":"0","assetState":"1","zqEntryState":"0","offeringState":"1","ticketIDList":"","secondaryKey":"Aceso1-FAHCHFS006"}
		
            , "ListOfMetaData": { 
               "Title":"Nursing Assistant Heart Talk Module 1 (English)"
               ,"Length":"8"
               ,"Genre":"2002"
               ,"TitleBrief":"Nursing Assistant Heart Talk Module 1 (E)"
               ,"YearOfRelease":"2011"
               ,"CreationDate":"2011-10-01 00:00:00"
               ,"ActivateTime":"2011-10-01 00:00:00"
               ,"DeactivateTime":"2034-12-31 00:00:00"
               ,"CountryOfOrigin":"USA"
               ,"Provider":"Aceso"
               ,"Rating":"2"
               ,"SubtitleLanguage":"1"
               ,"LongDescription":"Nursing Assistant Heart Talk Module 1 (English)"
               ,"Description":"Nursing Assistant Heart Talk Module 1 title"
               ,"AnalogCopy":"2"
               ,"ClosedCaption":"0"
               ,"ContractName":"Fletcher"
               ,"CanBeSuspended":"0"
               ,"RentalType":"2"
               ,"RentalTime":"1440"
               ,"Category":"Healthcare\Heart"
               ,"HDContent":"0"
             } 
         
	}
	
         
       ], "PageInfo": { "Total": "3", "CurrentPage": "1", "TotalPage": "1" } 
      
    }
	}
	
